Added Pin To Net: NetName=+Uin1 Pin=X1-1
Added Pin To Net: NetName=+Uin2 Pin=X1-2
Added Pin To Net: NetName=+Uin3 Pin=X1-3
Added Pin To Net: NetName=A+ Pin=X1-4
Added Pin To Net: NetName=GNDD Pin=X1-5
Added Pin To Net: NetName=A+ Pin=X1-6
Added Pin To Net: NetName=CH1 Pin=X1-7
Added Pin To Net: NetName=CH2 Pin=X1-8
Added Pin To Net: NetName=CH3 Pin=X1-9
Added Pin To Net: NetName=CH4 Pin=X1-10
Added Pin To Net: NetName=CH5 Pin=X1-11
Added Pin To Net: NetName=CH6 Pin=X1-12
Added Pin To Net: NetName=CH7 Pin=X1-13
Added Pin To Net: NetName=CH8 Pin=X1-14
Added Pin To Net: NetName=CH9 Pin=X1-15
Added Pin To Net: NetName=CH10 Pin=X1-16
Added Pin To Net: NetName=CH11 Pin=X1-17
Added Pin To Net: NetName=CH12 Pin=X1-18
